Ключ проблемы,Идентификатор проблемы,Пользовательское поле (Epic Name),Тема,Суммарная первоначальная оценка,Статус,Спринт,Спринт,Спринт,Пользовательское поле (Год создания набора спринтов),Исполнитель
PRODUCT-1934,1468125,,Обновление интеграции с core-pay для acceptance,21600,В работе,Спринт 2021.2.4.PRODUCT,,,,VTB4044850
PRODUCT-1933,1464960,,к3. БЭК. /account/permission возвращает 500,28800,Закрыт,Спринт 2021.2.3.PRODUCT,Спринт 2021.2.4.PRODUCT,,,VTB4046498
PRODUCT-1932,1454561,,"БЭК. Ошибка ""Не удалось получить кроссылку для пользователя"" при отправке запроса POST /account",14400,Закрыт,Спринт 2021.2.4.PRODUCT,,,,VTB70148139@region.vtb.ru
PRODUCT-1931,1453803,,БЭК. Ошибка 400 при вызове метода GET /account/person,0,Закрыт,Спринт 2021.2.4.PRODUCT,,,,VTB4041974
PRODUCT-1930,1453375,,БЭК. Ошибка 400 при вызове метода НПФ userbyposc,14400,Закрыт,Спринт 2021.2.4.PRODUCT,,,,VTB4041974
PRODUCT-1925,1449887,,"Команда. Орг. вопросы, коммуникации ",43200,Приостановлено,Спринт 2021.2.4.PRODUCT,,,2021,VTB4048637
PRODUCT-1924,1449055,,ГосПочта. Аналитика. ИБ. Оплата по штрафам с учетом дефекта ,72000,Создано,Спринт 2021.2.4.PRODUCT,,,2021,VTB4048637
PRODUCT-1922,1449035,,ГосПочта. Аналитика. ИБ. Уведомление о новых письмах,72000,Создано,Спринт 2021.2.4.PRODUCT,,,2021,VTB4048637
PRODUCT-1921,1449421,,Общее. Оргвопросы по команде,28800,Создано,Спринт 2021.2.4.PRODUCT,,,2021,VTB4044853
PRODUCT-1920,1449420,,Госпочта.Оргвопросы+Консультации,21600,Создано,Спринт 2021.2.4.PRODUCT,,,2021,VTB4044853
PRODUCT-1919,1449417,,НПФ. ОргВопросы,36000,В работе,Спринт 2021.2.4.PRODUCT,,,2021,VTB4044853
PRODUCT-1918,1449416,,НПФ. Анализ GA,14400,Создано,Спринт 2021.2.4.PRODUCT,,,2021,VTB4044853
PRODUCT-1917,1449412,,НПФ. Изменения в сценариях,36000,В работе,Спринт 2021.2.4.PRODUCT,,,2021,VTB4044853
PRODUCT-1916,1449408,,НПФ. Работа с изменениями в требованиях,36000,Подтверждение,Спринт 2021.2.4.PRODUCT,,,2021,VTB4044853
PRODUCT-1915,1449407,,Помощь в анализе по трекингу.,14400,Создано,Спринт 2021.2.4.PRODUCT,,,2021,VTB4044853
PRODUCT-1914,1448499,,НПФ. Работа с ФИС,57600,Создано,Спринт 2021.2.4.PRODUCT,,,2021,VTB4044853
PRODUCT-1913,1446756,,Алгоритм поиска / Признаки по Подписке,14400,Закрыто,Спринт 2021.2.4.PRODUCT,,,2021,KhabibullinEA@region.vtb.ru
PRODUCT-1912,1446749,,Согласовать Паспорт по SendIt,14400,Закрыто,Спринт 2021.2.4.PRODUCT,,,2021,KhabibullinEA@region.vtb.ru
PRODUCT-1911,1446364,,согласование договора. работа ТУОЗП. Подписание договора,14400,В работе,Спринт 2021.2.4.PRODUCT,,,2021,KhabibullinEA@region.vtb.ru
PRODUCT-1910,1446746,,Бриф по SendIt,14400,Закрыто,Спринт 2021.2.4.PRODUCT,,,2021,KhabibullinEA@region.vtb.ru
PRODUCT-1909,1446705,,Запросы в КХД по Подписке,21600,Закрыто,Спринт 2021.2.4.PRODUCT,,,2021,KhabibullinEA@region.vtb.ru
PRODUCT-1908,1445785,,Презентация по Подписке,7200,Создано,Спринт 2021.2.4.PRODUCT,,,2021,KhabibullinEA@region.vtb.ru
PRODUCT-1907,1445731,,Бриф и контекст по Подписке,14400,Закрыто,Спринт 2021.2.4.PRODUCT,,,2021,KhabibullinEA@region.vtb.ru
PRODUCT-1906,1445721,,Ценности по Подписке,7200,В работе,Спринт 2021.2.4.PRODUCT,,,2021,KhabibullinEA@region.vtb.ru
PRODUCT-1905,1445455,,Правки в ТДР по Госпочте и отправка на согласование,14400,В работе,Спринт 2021.2.4.PRODUCT,,,,VTB4044855
PRODUCT-1904,1445135,,ГосПочта. Формирование ФИС,100800,В работе,Спринт 2021.2.3.PRODUCT,Спринт 2021.2.4.PRODUCT,,2021,VTB4048637
PRODUCT-1903,1443554,,Работа с Дефектами,14400,Создано,Спринт 2021.2.4.PRODUCT,,,2021,KhabibullinEA@region.vtb.ru
PRODUCT-1902,1443532,,Помощь в тестирование/Тест устройство Андроид,14400,В работе,Спринт 2021.2.4.PRODUCT,,,2021,KhabibullinEA@region.vtb.ru
PRODUCT-1901,1443524,,Предварительный бэклог на 3 квартал 2021,14400,Создано,Спринт 2021.2.4.PRODUCT,,,2021,KhabibullinEA@region.vtb.ru
PRODUCT-1900,1443509,,Анализ первичный тех.долгов Мультибонуса,14400,Закрыто,Спринт 2021.2.4.PRODUCT,,,2021,KhabibullinEA@region.vtb.ru
PRODUCT-1899,1443097,,Проверка интеграции acceptance на к3 ,28800,Закрыто,Спринт 2021.2.4.PRODUCT,,,,VTB4044850
PRODUCT-1898,1442579,,анлитика клиентских путей. оценка макетов,28800,Закрыто,Спринт 2021.2.4.PRODUCT,,,2021,VTB50636423@region.vtb.ru
PRODUCT-1897,1443052,,Встреча с Почтой по S-terra,14400,В работе,Спринт 2021.2.4.PRODUCT,,,2021,KhabibullinEA@region.vtb.ru
PRODUCT-1896,1443044,,Помощь по вебу Госпочты - дорожная карта,14400,Закрыто,Спринт 2021.2.4.PRODUCT,,,2021,KhabibullinEA@region.vtb.ru
PRODUCT-1895,1442390,,Гипотезы и Опрос по SendIt,14400,Закрыто,Спринт 2021.2.4.PRODUCT,,,2021,KhabibullinEA@region.vtb.ru
PRODUCT-1894,1442620,,рефакторинг НПФ(создание и просмотр счёта) + подготовка к НТ,57600,В работе,Спринт 2021.2.4.PRODUCT,,,2021,VTB4044854
PRODUCT-1893,1441376,,Подготовка документации АИС(и тд),28800,В работе,Спринт 2021.2.4.PRODUCT,,,2021,VTB4044854
PRODUCT-1892,1441652,,НПФ - Коммуникация и активности по скраму 2021.2.4.PRODUCT Сержанович,0,Закрыто,Спринт 2021.2.4.PRODUCT,,,,VTB4044852
PRODUCT-1889,1441080,,Доработка получения писем,36000,Создано,Спринт 2021.2.4.PRODUCT,,,,VTB4044850
PRODUCT-1887,1441203,,[Android] НПФ. Открытие счета. Экран успешного завершения открытия счета,28800,Создано,Спринт 2021.2.4.PRODUCT,,,2021,VTB4044848
PRODUCT-1885,1441201,,[Android] НПФ. Открытие счета. Экран подтверждения платежа кодом из смс,43200,Создано,Спринт 2021.2.4.PRODUCT,,,2021,VTB4044848
PRODUCT-1884,1440959,,[iOS] НПФ - Экран подтверждения пополнения счёта,28800,Создано,Спринт 2021.2.4.PRODUCT,,,,VTB4044852
PRODUCT-1883,1440297,,[Android] НПФ. Открытие счета. Экран подтверждения платежных данных,28800,В работе,Спринт 2021.2.4.PRODUCT,,,2021,VTB4044848
PRODUCT-1882,1440295,,[Android] НПФ. Открытие счета. Экран пополнения счета,86400,Подтверждение,Спринт 2021.2.4.PRODUCT,,,2021,VTB4044848
PRODUCT-1881,1440934,,[iOS] НПФ - Экран пополнения счёта (логика и тесты),57600,В работе,Спринт 2021.2.4.PRODUCT,,,,VTB4044852
PRODUCT-1880,1440284,,[Android] НПФ. Открытие счета. Подтверждение введенных пользовательских данных. Экран ввода кода из смс,43200,Подтверждение,Спринт 2021.2.4.PRODUCT,,,2021,VTB4044848
PRODUCT-1879,1440927,,[iOS] НПФ - Экран пополнения счёта (сетевой слой),28800,В работе,Спринт 2021.2.4.PRODUCT,,,,VTB4044852
PRODUCT-1878,1440278,,[Android] НПФ. Открытие счета. Сетевые взаимодействия на экране подтверждения ввода персональных данных,28800,Создано,Спринт 2021.2.4.PRODUCT,,,2021,VTB4044848
PRODUCT-1877,1440900,,[iOS] НПФ - Экран пополнения счёта (верстка и роутинг),57600,Подтверждение,Спринт 2021.2.4.PRODUCT,,,,VTB4044852
PRODUCT-1876,1440687,,"[iOS] НПФ - Экран подтверждения и создания заявки (логика, сетевой слой, тесты)",43200,Подтверждение,Спринт 2021.2.4.PRODUCT,,,,VTB4044852
PRODUCT-1875,1440672,,[iOS] НПФ - Экран подтверждения и создания заявки (верстка и роутинг),28800,Закрыто,Спринт 2021.2.4.PRODUCT,,,,VTB4044852
PRODUCT-1874,1440661,,"сопровождение поставок по зависимостям, создание заяок, актуализация дорожной карты и рисков",21600,Закрыто,Спринт 2021.2.4.PRODUCT,,,2021,VTB50636423@region.vtb.ru
PRODUCT-1873,1440652,,[iOS] НПФ - Доработки по экрану ввода адреса проживания,28800,Подтверждение,Спринт 2021.2.4.PRODUCT,,,,VTB4044852
PRODUCT-1872,1440645,,тестирование функционала отображение в рамках фокус группы,7200,Закрыто,Спринт 2021.2.4.PRODUCT,,,2021,VTB50636423@region.vtb.ru
PRODUCT-1871,1440532,,Проработка гипотез по подпискам,28800,Закрыто,Спринт 2021.2.4.PRODUCT,,,2021,VTB50642953@region.vtb.ru
PRODUCT-1870,1440525,,Активности по нпф,28800,В работе,Спринт 2021.2.4.PRODUCT,,,2021,VTB50642953@region.vtb.ru
PRODUCT-1869,1440622,,"Подписка. составление гипотез, аналитика клиенских путей, фактура для исследовангия",28800,Закрыто,Спринт 2021.2.4.PRODUCT,,,2021,VTB50636423@region.vtb.ru
PRODUCT-1868,1440520,,Подготовка гипотез и опроса по доставке,28800,В работе,Спринт 2021.2.4.PRODUCT,,,2021,VTB50642953@region.vtb.ru
PRODUCT-1867,1440614,,пилот по доставке с акселератором. Sendit,28800,В работе,Спринт 2021.2.4.PRODUCT,,,2021,VTB50636423@region.vtb.ru
PRODUCT-1866,1440516,,Активности по web госпочты,28800,В работе,Спринт 2021.2.4.PRODUCT,,,2021,VTB50642953@region.vtb.ru
PRODUCT-1864,1440512,,Макеты с ошибкой по нпф,3600,В работе,Спринт 2021.2.4.PRODUCT,,,2021,VTB50642953@region.vtb.ru
PRODUCT-1863,1439998,,подготовка презентации для КРРБ по лимитам по НПФ,7200,Закрыто,Спринт 2021.2.4.PRODUCT,,,2021,VTB50636423@region.vtb.ru
PRODUCT-1862,1440501,,Проработка текстов и банера sendit,57600,Закрыто,Спринт 2021.2.4.PRODUCT,,,2021,VTB50642953@region.vtb.ru
PRODUCT-1861,1439993,,подготовка/согласование материалов для ДРОК. обучение,7200,В работе,Спринт 2021.2.4.PRODUCT,,,2021,VTB50636423@region.vtb.ru
PRODUCT-1860,1439888,,Проектирование сценария подписок часть 2,57600,Закрыто,Спринт 2021.2.4.PRODUCT,,,2021,VTB50642953@region.vtb.ru
PRODUCT-1859,1439981,,Подготовка и проведение ИФТ по беку открытие счетов,28800,Закрыто,Спринт 2021.2.4.PRODUCT,,,2021,VTB50636423@region.vtb.ru
PRODUCT-1858,1439878,,Проектирование сценария подписок часть 1,57600,Закрыто,Спринт 2021.2.4.PRODUCT,,,2021,VTB50642953@region.vtb.ru
PRODUCT-1857,1439952,,Согласование тестовых планов и сценариев.,14400,Закрыто,Спринт 2021.2.4.PRODUCT,,,2021,VTB50636423@region.vtb.ru
PRODUCT-1856,1439936,,согласовние Договора и составление ТУОЗП,57600,В работе,Спринт 2021.2.4.PRODUCT,,,2021,VTB50636423@region.vtb.ru
PRODUCT-1855,1440010,,рефакторинг репликации НПФ (оптимизация запросов),28800,В работе,Спринт 2021.2.4.PRODUCT,,,2021,VTB4044854
PRODUCT-1854,1439352,,Развернуть ppfl-npf-account на к5,7200,Закрыто,Спринт 2021.2.4.PRODUCT,,,,VTB4044850
PRODUCT-1853,1439546,,Помощь в тестировании,28800,Закрыто,Спринт 2021.2.4.PRODUCT,,,2021,VTB4044854
PRODUCT-1852,1439535,,Багфикс НПФ,57600,Закрыто,Спринт 2021.2.4.PRODUCT,,,2021,VTB4044854
PRODUCT-1851,1439532,,Код ревью,28800,В работе,Спринт 2021.2.4.PRODUCT,,,2021,VTB4044854
PRODUCT-1850,1439331,,Авторизация для клиента к API НПФ,21600,Подтверждение,Спринт 2021.2.4.PRODUCT,,,,VTB4044850
PRODUCT-1849,1438496,,Проверка интеграции с core-pay/confirm на к3 ,28800,Закрыто,Спринт 2021.2.4.PRODUCT,,,,VTB4044850
PRODUCT-1847,1438405,,Проверка интеграции с core-pay/request на к3 ,28800,Закрыто,Спринт 2021.2.4.PRODUCT,,,,VTB4044850
PRODUCT-1846,1437593,,"Открытие счета: Багфикс, подготовка к ПСИ",57600,Закрыто,Спринт 2021.2.4.PRODUCT,,,,VTB4044850
PRODUCT-1845,1435796,,"Открытие счета: Багфикс, рефакторинг. Помощь в тестировании.",57600,В работе,Спринт 2021.2.4.PRODUCT,,,,VTB4044851
PRODUCT-1843,1433742,,Ретест дефектов по Открытию счетов НПФ бэк,28800,Создано,Спринт 2021.2.4.PRODUCT,,,2021,VTB4046498
PRODUCT-1842,1433724,,Оформление артефакта ПМИ Решения по Открытию счетов НПФ бэк,14400,Создано,Спринт 2021.2.4.PRODUCT,,,2021,VTB4044855
PRODUCT-1841,1433702,,Орг мероприятия Скрам,28800,Закрыто,Спринт 2021.2.3.PRODUCT,Спринт 2021.2.4.PRODUCT,,2021,VTB4041974
PRODUCT-1839,1427146,,Вынос АИС по НПФ в отдельный артефакт,57600,Закрыто,Спринт 2021.2.4.PRODUCT,,,,VTB4044855
PRODUCT-1838,1427142,,Подготовить постановку для НТ для функционала открытия счетов НПФ,14400,Закрыто,Спринт 2021.2.4.PRODUCT,,,,VTB4032991
PRODUCT-1835,1422046,,Открытие счета: Маскирование персональных данных.,28800,В работе,Спринт 2021.2.4.PRODUCT,,,,VTB4044851
PRODUCT-1834,1422038,,"Открытие счета: Обработка ошибок, проверка. Описание ошибок в документации.",57600,В работе,Спринт 2021.2.4.PRODUCT,,,,VTB4044851
PRODUCT-1833,1417326,,"Открытие счета: Документация: Описание методов, правки.",14400,Закрыто,Спринт 2021.2.4.PRODUCT,,,,VTB4044851
PRODUCT-1830,1409499,,Открытие счета: История операций: Реализовать сброс кэша Core-Party,43200,Закрыто,Спринт 2021.2.4.PRODUCT,,,,VTB4044851
PRODUCT-1829,1408840,,к4. БЭК. Не отображается история операций после репликации,28800,Тестирование,Спринт 2021.2.3.PRODUCT,Спринт 2021.2.4.PRODUCT,,,VTB4046498
PRODUCT-1825,1403042,,Оценка решения по Мультибонусу,10800,В работе,Спринт 2021.2.4.PRODUCT,,,2021,KhabibullinEA@region.vtb.ru
PRODUCT-1746,1379852,,Оформление артефакта ПМИ Решения,21600,Создано,Спринт 2021.2.4.PRODUCT,,,2021,VTB4044855
PRODUCT-1732,1378142,, Оформление артефакта Протокол тестирования Решения по Открытию счетов НПФ бэк,14400,Закрыто,Спринт 2021.2.3.PRODUCT,Спринт 2021.2.4.PRODUCT,,2021,VTB50636423@region.vtb.ru
PRODUCT-1731,1378139,,Оформление артефакта Протокол тестирования ИС по Открытию счетов НПФ бэк,14400,Закрыто,Спринт 2021.2.3.PRODUCT,Спринт 2021.2.4.PRODUCT,,2021,VTB50636423@region.vtb.ru
PRODUCT-1730,1378133,,Оформление артефакта Тестовые планы и сценарии ИС по Открытию счетов НПФ бэк,14400,Закрыто,Спринт 2021.2.3.PRODUCT,Спринт 2021.2.4.PRODUCT,,2021,VTB4041974
PRODUCT-1727,1378123,,Оформление артефакта Тестовые планы и сценарии Решения  по Открытию счетов НПФ бэк,14400,Закрыто,Спринт 2021.2.3.PRODUCT,Спринт 2021.2.4.PRODUCT,,2021,VTB4041974
PRODUCT-1726,1378116,,Проведение тестирования по Открытию счетов НПФ бэк,86400,В работе,Спринт 2021.2.4.PRODUCT,,,2021,VTB4046498
PRODUCT-1725,1378114,,Написание тест кейсов по Открытию счетов НПФ бэк,115200,Закрыто,Спринт 2021.2.3.PRODUCT,Спринт 2021.2.4.PRODUCT,,2021,VTB4041974
PRODUCT-1638,1314970,,БЭК. Создается новый нпфгуид при повторном получении данных по пользователям из НПФ,0,Анализ,Спринт 2021.2.1.PRODUCT,Спринт 2021.2.3.PRODUCT,Спринт 2021.2.4.PRODUCT,,VTB4044854
PRODUCT-1630,1301095,,БЭК. Ошибка при загрузке в БД файла csv,0,Закрыт,Спринт 2021.2.1.PRODUCT,Спринт 2021.2.3.PRODUCT,Спринт 2021.2.4.PRODUCT,,VTB4041974
PRODUCT-1607,1283728,,Проанализировать возможность перехода на прокси с аутентификацией по ТУЗ,57600,Создано,Спринт 2021.2.4.PRODUCT,,,2021,VTB4044855
PRODUCT-1606,1283392,,Добавление События Открытия письма в Аудит по госпочте,28800,Создано,Спринт 2021.2.4.PRODUCT,,,,VTB4044855
PRODUCT-1605,1283378,,Добавление адреса по Госпочте - редирект на Почту,14400,Создано,Спринт 2021.2.4.PRODUCT,,,,VTB4044855
PRODUCT-1604,1283377,,Переключение Журналирования на СлужСервисы (Kafka),14400,Создано,Спринт 2021.2.4.PRODUCT,,,,VTB4044855
PRODUCT-1300,1086874,,Настройка Liveness & Readiness health check микросервисов ppfl,,Создано,Спринт 2021.2.4.PRODUCT,,,2021,VTB4044850
PRODUCT-1029,964400,,"Буферный баг, спринт 2021.2.4",864000,Отложен,Спринт 2021.1.2.PRODUCT,Спринт 2021.2.4.PRODUCT,,,VTB4033772
PRODUCT-994,917266,, анализ по Трекингу - результаты Опроса ,57600,Создано,Спринт 2021.1.3.PRODUCT,Спринт 2021.2.4.PRODUCT,,2021,KhabibullinEA@region.vtb.ru
PRODUCT-930,900766,,Аналитика по вебу Госпочте.  Оплата,14400,В работе,Спринт 2021.2.4.PRODUCT,,,2021,KhabibullinEA@region.vtb.ru
PRODUCT-801,836483,,переход на парнерское апи вместо БШ,14400,Создано,Спринт 2021.2.4.PRODUCT,,,,VTB4044855
PRODUCT-795,836437,,Переключение Аудита на СлужСервисы (Kafka),14400,В работе,Спринт 2021.2.4.PRODUCT,,,,VTB4044855
