Issue key,Issue id,Parent id,Summary,Custom field (Story Points),Status,Custom field (Status code),Sprint,Sprint,Sprint,Sprint,Sprint,Sprint,Assignee,Created
ABM-26157,1321321,,Регресс Android 11.1 - Павел Горб,,In Progress,,Сеул 25.01-05.02,,,,,,U_M17ZN,01.02.2021 11:22
ABM-26078,1316715,1305368,[Android] Запилить,,To Do,,Сеул 25.01-05.02,,,,,,U_023AN,28.01.2021 14:13
ABM-26077,1316713,1305360,[Android] Запилить,,In Progress,,Сеул 25.01-05.02,,,,,,U_023AN,28.01.2021 14:13
ABM-26055,1313701,1305294,Реализация,,To Do,,Сеул 25.01-05.02,,,,,,,27.01.2021 10:55
ABM-26028,1308118,,Регресс iOS 11.1 - Павел Горб,,Done,,Сеул 25.01-05.02,,,,,,U_M17ZN,25.01.2021 15:05
ABM-26008,1306335,1294128,Проверка Backend части,5.0,Done,,Сеул 11.01-22.01,Сеул 25.01-05.02,,,,,U_M17ZN,22.01.2021 18:13
ABM-26006,1306333,1294128,Проверка статусной модели Android,,In Progress,,Сеул 11.01-22.01,Сеул 25.01-05.02,,,,,U_M17ZN,22.01.2021 18:11
ABM-26005,1306332,1294128,Проверка статусной модели iOS,5.0,Done,,Сеул 11.01-22.01,Сеул 25.01-05.02,,,,,U_M17ZN,22.01.2021 18:11
ABM-25983,1305451,1285094,Пререпилить тесты,,Closed,,Сеул 11.01-22.01,Сеул 25.01-05.02,,,,,U_023AN,22.01.2021 13:42
ABM-25982,1305216,1294337,Я как клиент хочу подписать документ через письма,,In Progress,,Сеул 11.01-22.01,Сеул 25.01-05.02,,,,,U_M17ZN,22.01.2021 13:37
ABM-25981,1305215,1294337,Я как клиент хочу подписать документ ЭП,5.0,In Progress,,Сеул 11.01-22.01,Сеул 25.01-05.02,,,,,U_M17ZN,22.01.2021 13:36
ABM-25980,1305214,1294337,Я как клиент хочу увидеть ошибки по подписанию,5.0,In Progress,,Сеул 11.01-22.01,Сеул 25.01-05.02,,,,,U_M17ZN,22.01.2021 13:36
ABM-25979,1305213,1294337,Я как клиент хочу просмотреть документ и список на подписание,5.0,In Progress,,Сеул 11.01-22.01,Сеул 25.01-05.02,,,,,U_M17ZN,22.01.2021 13:36
ABM-25978,1305212,1294337,"Я как клиент хочу узнать, что у меня есть документ на подписание",6.0,In Progress,,Сеул 11.01-22.01,Сеул 25.01-05.02,,,,,U_M17ZN,22.01.2021 13:35
ABM-25977,1305392,1305384,[iOS] Обновить на фронте URL для API статусной модели (делаем до тестироваия задачи декомпозиция AQ API),,Prod deployment,,Сеул 25.01-05.02,,,,,,U_M17ZN,22.01.2021 13:17
ABM-25976,1305391,1305384,Запилить на Android,,Prod deployment,,Сеул 25.01-05.02,,,,,,U_M17ZN,22.01.2021 13:16
ABM-25975,1305389,1285094,Проблема с навигацией по backstack,,Done,,Сеул 11.01-22.01,Сеул 25.01-05.02,,,,,U_M17ZN,22.01.2021 13:16
ABM-25973,1305384,,Сменить URL для статусной модели,1.0,testing in feature branch,,Сеул 25.01-05.02,,,,,,,22.01.2021 13:14
ABM-25972,1305301,,Обновить текста по статусной модели,2.0,Prod deployment,,Сеул 25.01-05.02,,,,,,U_M17ZN,22.01.2021 13:13
ABM-25971,1305382,1305368,[iOS] Я как клиент хочу отобразить историю операций,,To Do,,Сеул 25.01-05.02,,,,,,U_M14R9,22.01.2021 13:13
ABM-25970,1305381,1284587,[Android] Закрыть AB-тест по подключению (баннер эквайринга на дашборде),,Ready for testing,,Сеул 11.01-22.01,Сеул 25.01-05.02,,,,,U_M17ZN,22.01.2021 13:12
ABM-25969,1305378,1305360,[iOS] как клиент хочу зайти в историю операций,,Ready for testing,,Сеул 25.01-05.02,,,,,,U_M14R9,22.01.2021 13:11
ABM-25963,1305294,,Обновить статусную модель (добавить новые статусы),3.0,To Do,,Сеул 25.01-05.02,,,,,,U_M13UP,22.01.2021 13:11
ABM-25962,1305373,1305368,Дополнить тестовую модель,,In Progress,,Сеул 25.01-05.02,,,,,,U_M17ZN,22.01.2021 13:10
ABM-25961,1305372,1305368,Design-review,,To Do,,Сеул 25.01-05.02,,,,,,,22.01.2021 13:10
ABM-25960,1305371,1305368,События GA,,To Do,,Сеул 25.01-05.02,,,,,,,22.01.2021 13:10
ABM-25959,1305370,1305368,Тесты на фронте,,To Do,,Сеул 25.01-05.02,,,,,,,22.01.2021 13:10
ABM-25958,1305369,1305368,Медиапланирование,,To Do,,Сеул 25.01-05.02,,,,,,,22.01.2021 13:10
ABM-25957,1305368,,Я как клиент хочу отобразить историю операций,8.0,To Do,,Сеул 25.01-05.02,,,,,,,22.01.2021 13:10
ABM-25956,1305292,,Замена текстовок в тарифе интернет эквайринга,2.0,Closed,,Сеул 25.01-05.02,,,,,,U_M13UP,22.01.2021 13:10
ABM-25955,1305366,1305360,Дополнить тестовую модель,,In Progress,,Сеул 25.01-05.02,,,,,,U_M17ZN,22.01.2021 13:09
ABM-25954,1305365,1305360,Design-review,,To Do,,Сеул 25.01-05.02,,,,,,,22.01.2021 13:09
ABM-25953,1305364,1305360,События GA,,To Do,,Сеул 25.01-05.02,,,,,,,22.01.2021 13:09
ABM-25952,1305362,1305360,Тесты на фронте,,To Do,,Сеул 25.01-05.02,,,,,,,22.01.2021 13:09
ABM-25951,1305361,1305360,Медиапланирование,,To Do,,Сеул 25.01-05.02,,,,,,,22.01.2021 13:09
ABM-25950,1305360,,Я как клиент хочу зайти в историю операций,3.0,In Progress,,Сеул 25.01-05.02,,,,,,,22.01.2021 13:09
ABM-25948,1305349,,(Spike) Возможность доработки показа pdf в подписании договора,2.0,Done,,Сеул 25.01-05.02,,,,,,U_023AN,22.01.2021 13:03
ABM-25937,1304117,,"[iOS] [Tech] Вынос в модули классов, затрудняющие модуляризацию",,Done,,Сеул 11.01-22.01,Сеул 25.01-05.02,,,,,U_M14R9,21.01.2021 17:41
ABM-25900,1300712,1284587,[iOS] Закрыть AB-тест по подключению (баннер эквайринга на дашборде),,Prod deployment,,Сеул 11.01-22.01,Сеул 25.01-05.02,,,,,U_M17ZN,20.01.2021 15:19
ABM-25871,1298911,,Регресс Android 11.0 - Павел Горб,,Done,,Сеул 11.01-22.01,Сеул 25.01-05.02,,,,,U_M17ZN,20.01.2021 10:33
ABM-25805,1294706,1294337,Отсутствует отображение ошибки при открытии раздела ИЭ/ТЭ/ОК при отсутствии интернета ,,Done,,Сеул 11.01-22.01,Сеул 25.01-05.02,,,,,U_M17ZN,18.01.2021 13:57
ABM-25802,1294351,1283065,QA,,Done,,Сеул 11.01-22.01,Сеул 25.01-05.02,,,,,U_M17ZN,18.01.2021 11:53
ABM-25801,1294344,1227186,[QA] Проверить тексты статусной модели,,Done,,Сеул 23.11-04.12,Сеул 07.12-18.12,Сеул 21.12-31.12,Сеул 11.01-22.01,Сеул 25.01-05.02,,U_M17ZN,18.01.2021 11:50
ABM-25799,1294339,1294337,Android,,In Progress,,Сеул 11.01-22.01,Сеул 25.01-05.02,,,,,U_M17ZN,18.01.2021 11:47
ABM-25798,1294338,1294337,iOS,,In Progress,,Сеул 11.01-22.01,Сеул 25.01-05.02,,,,,U_M17ZN,18.01.2021 11:47
ABM-25797,1294337,,[QA] Флоу по подписанию. Пройти весь флоу подписания,,In Progress,,Сеул 11.01-22.01,Сеул 25.01-05.02,,,,,U_M17ZN,18.01.2021 11:46
ABM-25796,1294128,,[QA] Декомпозиция AQ-API,,In Progress,,Сеул 11.01-22.01,Сеул 25.01-05.02,,,,,U_M17ZN,18.01.2021 11:40
ABM-25731,1288368,1227186,"Не соответствует текста для описания шагов ""Заключение договора"" и ""Настройка на странице лендинга ТЭ/ИЭ",,Closed,,Сеул 23.11-04.12,Сеул 07.12-18.12,Сеул 21.12-31.12,Сеул 11.01-22.01,Сеул 25.01-05.02,,U_M13UP,13.01.2021 17:04
ABM-25730,1288359,1227186,Android[11.0.0.15] Заменить текст на экране отправки заявки на подключения ТЭ,,Done,,Сеул 23.11-04.12,Сеул 07.12-18.12,Сеул 21.12-31.12,Сеул 11.01-22.01,Сеул 25.01-05.02,,U_M17ZN,13.01.2021 16:57
ABM-25694,1286408,1227186,Выводить значение суммы в рублях консистентно (пробел спереди знака рубля),,Done,,Сеул 23.11-04.12,Сеул 07.12-18.12,Сеул 21.12-31.12,Сеул 11.01-22.01,Сеул 25.01-05.02,,U_M13UP,12.01.2021 18:28
ABM-25693,1286364,1227186,Android[11.0.0.10] Отсутствуют скобки в названиях тарифа на странице лендинга для ТЭ/ИЭ,,Done,,Сеул 23.11-04.12,Сеул 07.12-18.12,Сеул 21.12-31.12,Сеул 11.01-22.01,Сеул 25.01-05.02,,U_M17ZN,12.01.2021 17:42
ABM-25668,1285094,,Переписать тесты ,8.0,Done,,Сеул 11.01-22.01,Сеул 25.01-05.02,,,,,U_023AN,12.01.2021 11:46
ABM-25666,1284587,,Закрыть AB-тест по подключению (баннер эквайринга на дашборде),3.0,In Progress,,Сеул 11.01-22.01,Сеул 25.01-05.02,,,,,U_M13MN,12.01.2021 10:18
ABM-25658,1283065,,[iOS] Создать фичатоглы подписания эквайринга,2.0,Prod deployment,,Сеул 11.01-22.01,Сеул 25.01-05.02,,,,,U_M17ZN,11.01.2021 14:29
ABM-25157,1253713,1206877,Обновить доку статусной модели (api и фронт),,Done,,Сеул 09.11-20.11,Сеул 23.11-04.12,Сеул 07.12-18.12,Сеул 21.12-31.12,Сеул 11.01-22.01,Сеул 25.01-05.02,U_M13MN,10.12.2020 16:00
ABM-25121,1252745,1252740,Дополнить тестовую модель,,Done,,Сеул 07.12-18.12,Сеул 21.12-31.12,Сеул 11.01-22.01,Сеул 25.01-05.02,,,U_M17ZN,10.12.2020 11:04
ABM-25120,1252744,1252740,Design-review,,Done,,Сеул 07.12-18.12,Сеул 21.12-31.12,Сеул 11.01-22.01,Сеул 25.01-05.02,,,U_M14R9,10.12.2020 11:04
ABM-25119,1252743,1252740,События GA,,Done,,Сеул 07.12-18.12,Сеул 21.12-31.12,Сеул 11.01-22.01,Сеул 25.01-05.02,,,U_M14R9,10.12.2020 11:04
ABM-25118,1252742,1252740,Тесты на фронте,,Closed,,Сеул 07.12-18.12,Сеул 21.12-31.12,Сеул 11.01-22.01,Сеул 25.01-05.02,,,U_M14R9,10.12.2020 11:04
ABM-25116,1252740,,[iOS] Я как клиент хочу подписать документ ЭП,,Done,,Сеул 07.12-18.12,Сеул 21.12-31.12,Сеул 11.01-22.01,Сеул 25.01-05.02,,,U_M14R9,10.12.2020 11:04
ABM-24875,1232874,1232866,Просмотр списка всех документов на подписание,,Done,,Сеул 23.11-04.12,Сеул 07.12-18.12,Сеул 21.12-31.12,Сеул 11.01-22.01,Сеул 25.01-05.02,,U_M17ZN,27.11.2020 10:58
ABM-24874,1232873,1232866,Просмотр документа на подписание и вывод ошибок при попытке просмотра,,Done,,Сеул 23.11-04.12,Сеул 07.12-18.12,Сеул 21.12-31.12,Сеул 11.01-22.01,Сеул 25.01-05.02,,U_M14R9,27.11.2020 10:57
ABM-24873,1232871,1232866,Дополнить тестовую модель,,Done,,Сеул 23.11-04.12,Сеул 07.12-18.12,Сеул 21.12-31.12,Сеул 11.01-22.01,Сеул 25.01-05.02,,U_M17ZN,27.11.2020 10:55
ABM-24872,1232870,1232866,Design-review,,Done,,Сеул 23.11-04.12,Сеул 07.12-18.12,Сеул 21.12-31.12,Сеул 11.01-22.01,Сеул 25.01-05.02,,U_M14R9,27.11.2020 10:55
ABM-24871,1232869,1232866,События GA,,Closed,,Сеул 23.11-04.12,Сеул 07.12-18.12,Сеул 21.12-31.12,Сеул 11.01-22.01,Сеул 25.01-05.02,,U_M17ZN,27.11.2020 10:55
ABM-24870,1232868,1232866,Тесты на фронте,,Closed,,Сеул 23.11-04.12,Сеул 07.12-18.12,Сеул 21.12-31.12,Сеул 11.01-22.01,Сеул 25.01-05.02,,U_M17ZN,27.11.2020 10:55
ABM-24868,1232866,,[iOS] Я как клиент хочу просмотреть документ и список на подписание,,Done,,Сеул 23.11-04.12,Сеул 07.12-18.12,Сеул 21.12-31.12,Сеул 11.01-22.01,Сеул 25.01-05.02,,U_M14R9,27.11.2020 10:55
ABM-24753,1227186,,Обновить тексты статусной модели,5.0,Prod deployment,,Сеул 23.11-04.12,Сеул 07.12-18.12,Сеул 21.12-31.12,Сеул 11.01-22.01,Сеул 25.01-05.02,,U_M17ZN,24.11.2020 14:24
ABM-24455,1208417,1207973,Запилить,,Done,,Сеул 09.11-20.11,Сеул 23.11-04.12,Сеул 07.12-18.12,Сеул 21.12-31.12,Сеул 11.01-22.01,Сеул 25.01-05.02,U_023AN,11.11.2020 16:31
ABM-24435,1207978,1207973,Дополнить тестовую модель,,Done,,Сеул 09.11-20.11,Сеул 23.11-04.12,Сеул 07.12-18.12,Сеул 21.12-31.12,Сеул 11.01-22.01,Сеул 25.01-05.02,U_M17ZN,11.11.2020 12:18
ABM-24434,1207977,1207973,Design-review,,Done,,Сеул 09.11-20.11,Сеул 23.11-04.12,Сеул 07.12-18.12,Сеул 21.12-31.12,Сеул 11.01-22.01,Сеул 25.01-05.02,U_023AN,11.11.2020 12:18
ABM-24433,1207976,1207973,События GA перепроверить + проверка тоглов,,Done,,Сеул 09.11-20.11,Сеул 23.11-04.12,Сеул 07.12-18.12,Сеул 21.12-31.12,Сеул 11.01-22.01,Сеул 25.01-05.02,U_023AN,11.11.2020 12:18
ABM-24432,1207975,1207973,Тесты на фронте,,Done,,Сеул 09.11-20.11,Сеул 23.11-04.12,Сеул 07.12-18.12,Сеул 21.12-31.12,Сеул 11.01-22.01,Сеул 25.01-05.02,U_023AN,11.11.2020 12:18
ABM-24430,1207973,,"[Android] Я как клиент хочу узнать, что у меня есть документ на подписание",2.0,Done,,Сеул 09.11-20.11,Сеул 23.11-04.12,Сеул 07.12-18.12,Сеул 21.12-31.12,Сеул 11.01-22.01,Сеул 25.01-05.02,U_023AN,11.11.2020 12:18
ABM-24395,1206882,1206877,Написать ОТАР на эквайринг,11.0,In Progress,,Сеул 09.11-20.11,Сеул 23.11-04.12,Сеул 07.12-18.12,Сеул 21.12-31.12,Сеул 11.01-22.01,Сеул 25.01-05.02,U_M13MN,10.11.2020 17:30
ABM-24394,1206880,1206877,Согласовать vision,,In Progress,,Сеул 09.11-20.11,Сеул 23.11-04.12,Сеул 07.12-18.12,Сеул 21.12-31.12,Сеул 11.01-22.01,Сеул 25.01-05.02,U_M13MN,10.11.2020 17:29
ABM-24393,1206879,1206877,Документация на api,,Done,,Сеул 09.11-20.11,Сеул 23.11-04.12,Сеул 07.12-18.12,Сеул 21.12-31.12,Сеул 11.01-22.01,Сеул 25.01-05.02,U_M13MN,10.11.2020 17:29
ABM-24392,1206878,1206877,Документация на фронт,,Done,,Сеул 09.11-20.11,Сеул 23.11-04.12,Сеул 07.12-18.12,Сеул 21.12-31.12,Сеул 11.01-22.01,Сеул 25.01-05.02,U_M13MN,10.11.2020 17:28
ABM-24391,1206877,,Документация. Онлайн-подписание документов эквайринга,,In Progress,,Сеул 09.11-20.11,Сеул 23.11-04.12,Сеул 07.12-18.12,Сеул 21.12-31.12,Сеул 11.01-22.01,Сеул 25.01-05.02,U_M13MN,10.11.2020 17:27
ABM-24062,1190360,1190355,Дополнить тестовую модель,,Done,,Сеул 09.11-20.11,Сеул 23.11-04.12,Сеул 07.12-18.12,Сеул 21.12-31.12,Сеул 11.01-22.01,Сеул 25.01-05.02,U_M17ZN,29.10.2020 10:22
ABM-24061,1190359,1190355,Design-review,,Done,,Сеул 09.11-20.11,Сеул 23.11-04.12,Сеул 07.12-18.12,Сеул 21.12-31.12,Сеул 11.01-22.01,Сеул 25.01-05.02,U_M14R9,29.10.2020 10:22
ABM-24060,1190358,1190355,События GA,,Done,,Сеул 09.11-20.11,Сеул 23.11-04.12,Сеул 07.12-18.12,Сеул 21.12-31.12,Сеул 11.01-22.01,Сеул 25.01-05.02,U_M14R9,29.10.2020 10:22
ABM-24059,1190357,1190355,Тесты на фронте,,Closed,,Сеул 09.11-20.11,Сеул 23.11-04.12,Сеул 07.12-18.12,Сеул 21.12-31.12,Сеул 11.01-22.01,Сеул 25.01-05.02,U_M14R9,29.10.2020 10:22
ABM-24057,1190355,,"[iOS] Я как клиент хочу узнать, что у меня есть документ на подписание",,Done,,Сеул 09.11-20.11,Сеул 23.11-04.12,Сеул 07.12-18.12,Сеул 21.12-31.12,Сеул 11.01-22.01,Сеул 25.01-05.02,U_M14R9,29.10.2020 10:22
