"number","assigned_to"
"SFSTRY0009476","Никитина Алла Гургеновна, Фёклин Александр Александрович, Григорьев Константин Владимирович"
"SFSTRY0009477","Никитина Алла Гургеновна, Фёклин Александр Александрович, Григорьев Константин Владимирович"
"SFSTRY0010262","Пушина Наталья Сергеевна"
"SFSTRY0009455","Пушина Наталья Сергеевна"
"SFSTRY0009394","Шувалов Борис Викторович"
"SFSTRY0010566","Шувалов Борис Викторович, Фёклин Александр Александрович"
"SFSTRY0009393","Шувалов Борис Викторович"
"SFSTRY0009394","Шувалов Борис Викторович"
"SFSTRY0010531","Шувалов Борис Викторович, Фёклин Александр Александрович"
"SFSTRY0009303","Фёклин Александр Александрович, Орлова Наталья Валерьевна, Никитина Алла Гургеновна"
"SFSTRY0010541","Григорьев Константин Владимирович, Киклевич Андрей Олегович, Никитина Алла Гургеновна, Орлова Наталья Валерьевна, Фёклин Александр Александрович, Шувалов Борис Викторович"
"SFSTRY0009040","Фёклин Александр Александрович, Орлова Наталья Валерьевна, Никитина Алла Гургеновна"
"SFSTRY0009261","Григорьев Константин Владимирович, Киклевич Андрей Олегович"
"SFSTRY0010270","Орлова Наталья Валерьевна, Фёклин Александр Александрович"
"SFSTRY0010761","Шувалов Борис Викторович"
"SFSTRY0010608","Орлова Наталья Валерьевна, Фёклин Александр Александрович, Киклевич Андрей Олегович"
"SFSTRY0010759","Орлова Наталья Валерьевна, Фёклин Александр Александрович, Григорьев Константин Владимирович"
"SFSTRY0010457","Орлова Наталья Валерьевна, Фёклин Александр Александрович, Никитина Алла Гургеновна"
"SFSTRY0009332","Пушкарь Илья Андреевич, Фёклин Александр Александрович, Шувалов Борис Викторович, Киклевич Андрей Олегович"
"SFSTRY0009261","Григорьев Константин Владимирович, Киклевич Андрей Олегович"
"SFSTRY0011499","Григорьев Константин Владимирович"
"SFSTRY0008288","Орлова Наталья Валерьевна, Шувалов Борис Викторович, Никитина Алла Гургеновна"
"SFSTRY0010676","Орлова Наталья Валерьевна, Шувалов Борис Викторович, Фёклин Александр Александрович"
"SFSTRY0010687","Орлова Наталья Валерьевна, Никитина Алла Гургеновна, Фёклин Александр Александрович, Григорьев Константин Владимирович"
"SFSTRY0011463","Орлова Наталья Валерьевна, Никитина Алла Гургеновна, Пушкарь Илья Андреевич"
"SFSTRY0011156","Шувалов Борис Викторович"
"SFSTRY0011501","Григорьев Константин Владимирович, Пушкарь Илья Андреевич, Фёклин Александр Александрович, Никитина Алла Гургеновна"
"SFSTRY0011459","Григорьев Константин Владимирович, Пушкарь Илья Андреевич, Фёклин Александр Александрович, Шувалов Борис Викторович, Орлова Наталья Валерьевна"
"SFSTRY0011455","Никитина Алла Гургеновна, Фёклин Александр Александрович, Пушкарь Илья Андреевич"
"SFSTRY0010961","Шувалов Борис Викторович"
"SFSTRY0011805","Фёклин Александр Александрович, Григорьев Константин Владимирович"
"SFSTRY0011576","Фёклин Александр Александрович"
"SFSTRY0010659","Фёклин Александр Александрович, Никитина Алла Гургеновна, Орлова Наталья Валерьевна"
"SFSTRY0011548","Фёклин Александр Александрович, Киклевич Андрей Олегович, Орлова Наталья Валерьевна, Шувалов Борис Викторович"
"SFSTRY0011573","Фёклин Александр Александрович, Орлова Наталья Валерьевна, Никитина Алла Гургеновна"
"SFSTRY0010641","Орлова Наталья Валерьевна, Никитина Алла Гургеновна"
"SFSTRY0011262","Шувалов Борис Викторович"
"SFSTRY0011588","Фёклин Александр Александрович, Никитина Алла Гургеновна, Орлова Наталья Валерьевна"
"SFSTRY0011589","Фёклин Александр Александрович, Никитина Алла Гургеновна, Орлова Наталья Валерьевна, Шувалов Борис Викторович"
"SFSTRY0011564","Фёклин Александр Александрович, Никитина Алла Гургеновна, Орлова Наталья Валерьевна"
"SFSTRY0011590","Орлова Наталья Валерьевна, Григорьев Константин Владимирович, Пушкарь Илья Андреевич, Киклевич Андрей Олегович"
"SFSTRY0010718","Фёклин Александр Александрович, Никитина Алла Гургеновна"
"SFSTRY0014508","Шувалов Борис Викторович"
"SFSTRY0014824","Орлова Наталья Валерьевна"
"SFSTRY0013607","Орлова Наталья Валерьевна, Никитина Алла Гургеновна"
"SFSTRY0011055","Орлова Наталья Валерьевна, Никитина Алла Гургеновна"
"SFSTRY0013649","Григорьев Константин Владимирович, Киклевич Андрей Олегович, Фёклин Александр Александрович"
"SFSTRY0015380","Шувалов Борис Викторович"
"SFSTRY0013808","Фёклин Александр Александрович, Никитина Алла Гургеновна, Орлова Наталья Валерьевна"
"SFSTRY0010870","Фёклин Александр Александрович, Киклевич Андрей Олегович, Григорьев Константин Владимирович"
"SFSTRY0010423","Фёклин Александр Александрович, Шувалов Борис Викторович, Никитина Алла Гургеновна"
"SFSTRY0014489","Фёклин Александр Александрович, Шувалов Борис Викторович, Пушкарь Илья Андреевич"
"SFSTRY0014181","Пушкарь Илья Андреевич, Орлова Наталья Валерьевна, Киклевич Андрей Олегович"
"SFSTRY0013662","Пушкарь Илья Андреевич, Орлова Наталья Валерьевна, Киклевич Андрей Олегович, Григорьев Константин Владимирович"
"SFSTRY0010437","Орлова Наталья Валерьевна, Фёклин Александр Александрович, Шувалов Борис Викторович, Никитина Алла Гургеновна"
"SFSTRY0014175","Григорьев Константин Владимирович"
"SFSTRY0015598","Орлова Наталья Валерьевна, Шувалов Борис Викторович"
"SFSTRY0015633","Орлова Наталья Валерьевна, Шувалов Борис Викторович, Григорьев Константин Владимирович, Фёклин Александр Александрович, Никитина Алла Гургеновна"
"SFSTRY0014456","Григорьев Константин Владимирович, Никитина Алла Гургеновна, Пушкарь Илья Андреевич"
"SFSTRY0013484","Григорьев Константин Владимирович, Фёклин Александр Александрович, Киклевич Андрей Олегович"
"SFSTRY0013664","Киклевич Андрей Олегович, Фёклин Александр Александрович, Шувалов Борис Викторович"

