Issue key,Issue id,Parent id,Summary,Custom field (Story Points),Status,Custom field (Status code),Sprint,Sprint,Sprint,Sprint,Sprint,Assignee,Created
ABM-25668,1285094,,Пехеход на новую архитектуру.,15.0,In Progress,,Сеул 11.01-22.01,,,,,U_023AN,12.01.2021 11:46
ABM-25666,1284587,,Закрыть AB-тест по подключению (баннер эквайринга на дашборде),4.0,To Do,,Сеул 11.01-22.01,,,,,,12.01.2021 10:18
ABM-25664,1284581,,Обновить статусную модель (маппинг новых статусов),2.0,To Do,,Сеул 11.01-22.01,,,,,U_M13MN,12.01.2021 10:11
ABM-25660,1283076,1283044,Вынести саму статусную модель онлайн-кассы,,To Do,,Сеул 11.01-22.01,,,,,,11.01.2021 14:32
ABM-25659,1283074,1283044,Вынести зависимости в модули,,To Do,,Сеул 11.01-22.01,,,,,,11.01.2021 14:31
ABM-25658,1283065,,[iOS] Создать фичатоглы подписания эквайринга,,To Do,,Сеул 11.01-22.01,,,,,U_M14R9,11.01.2021 14:29
ABM-25651,1283053,1283037,Вынести саму статусную модель эквайринга,,To Do,,Сеул 11.01-22.01,,,,,,11.01.2021 14:27
ABM-25650,1283050,1283037,Вынести зависимости в модули,,To Do,,Сеул 11.01-22.01,,,,,,11.01.2021 14:27
ABM-25649,1283049,1283044,Дополнить тестовую модель,,To Do,,Сеул 11.01-22.01,,,,,U_M14R9,11.01.2021 14:25
ABM-25648,1283048,1283044,Design-review,,To Do,,Сеул 11.01-22.01,,,,,U_M14R9,11.01.2021 14:25
ABM-25647,1283047,1283044,События GA,,To Do,,Сеул 11.01-22.01,,,,,U_M14R9,11.01.2021 14:25
ABM-25646,1283046,1283044,Тесты на фронте,,To Do,,Сеул 11.01-22.01,,,,,U_M14R9,11.01.2021 14:25
ABM-25644,1283044,,[iOS] Вынести статусную модель для онлайн-кассы в модуль,,To Do,,Сеул 11.01-22.01,,,,,U_M14R9,11.01.2021 14:25
ABM-25643,1283042,1283037,Дополнить тестовую модель,,To Do,,Сеул 11.01-22.01,,,,,U_M14R9,11.01.2021 14:24
ABM-25642,1283041,1283037,Design-review,,To Do,,Сеул 11.01-22.01,,,,,U_M14R9,11.01.2021 14:24
ABM-25641,1283040,1283037,События GA,,To Do,,Сеул 11.01-22.01,,,,,U_M14R9,11.01.2021 14:24
ABM-25640,1283039,1283037,Тесты на фронте,,To Do,,Сеул 11.01-22.01,,,,,U_M14R9,11.01.2021 14:24
ABM-25639,1283038,1283037,Медиапланирование,,To Do,,Сеул 11.01-22.01,,,,,U_M14R9,11.01.2021 14:24
ABM-25638,1283037,,[iOS] Вынести статусную модель для торгового и интернет-эквайринга в модуль,,To Do,,Сеул 11.01-22.01,,,,,U_M14R9,11.01.2021 14:24
ABM-25510,1276105,,Унификация kotlin проектов,,In Progress,,Сеул 21.12-31.12,Сеул 11.01-22.01,,,,U_M13UP,28.12.2020 11:12
ABM-25157,1253713,1206877,Обновить доку статусной модели (api и фронт),,Done,,Сеул 09.11-20.11,Сеул 23.11-04.12,Сеул 07.12-18.12,Сеул 21.12-31.12,Сеул 11.01-22.01,U_M13MN,10.12.2020 16:00
ABM-25121,1252745,1252740,Дополнить тестовую модель,,To Do,,Сеул 07.12-18.12,Сеул 21.12-31.12,Сеул 11.01-22.01,,,U_M14R9,10.12.2020 11:04
ABM-25120,1252744,1252740,Design-review,,In Progress,,Сеул 07.12-18.12,Сеул 21.12-31.12,Сеул 11.01-22.01,,,U_M14R9,10.12.2020 11:04
ABM-25119,1252743,1252740,События GA,,Done,,Сеул 07.12-18.12,Сеул 21.12-31.12,Сеул 11.01-22.01,,,U_M14R9,10.12.2020 11:04
ABM-25118,1252742,1252740,Тесты на фронте,,Closed,,Сеул 07.12-18.12,Сеул 21.12-31.12,Сеул 11.01-22.01,,,U_M14R9,10.12.2020 11:04
ABM-25117,1252741,1252740,Медиапланирование,,To Do,,Сеул 07.12-18.12,Сеул 21.12-31.12,Сеул 11.01-22.01,,,U_M14R9,10.12.2020 11:04
ABM-25116,1252740,,[iOS] Я как клиент хочу подписать документ ЭП,,In Progress,,Сеул 07.12-18.12,Сеул 21.12-31.12,Сеул 11.01-22.01,,,U_M14R9,10.12.2020 11:04
ABM-24875,1232874,1232866,Просмотр списка всех документов на подписание,,Ready for testing,,Сеул 23.11-04.12,Сеул 07.12-18.12,Сеул 21.12-31.12,Сеул 11.01-22.01,,U_M14R9,27.11.2020 10:58
ABM-24874,1232873,1232866,Просмотр документа на подписание и вывод ошибок при попытке просмотра,,Done,,Сеул 23.11-04.12,Сеул 07.12-18.12,Сеул 21.12-31.12,Сеул 11.01-22.01,,U_M14R9,27.11.2020 10:57
ABM-24873,1232871,1232866,Дополнить тестовую модель,,In Progress,,Сеул 23.11-04.12,Сеул 07.12-18.12,Сеул 21.12-31.12,Сеул 11.01-22.01,,U_M17ZN,27.11.2020 10:55
ABM-24872,1232870,1232866,Design-review,,To Do,,Сеул 23.11-04.12,Сеул 07.12-18.12,Сеул 21.12-31.12,Сеул 11.01-22.01,,U_M14R9,27.11.2020 10:55
ABM-24871,1232869,1232866,События GA,,Ready for testing,,Сеул 23.11-04.12,Сеул 07.12-18.12,Сеул 21.12-31.12,Сеул 11.01-22.01,,U_M14R9,27.11.2020 10:55
ABM-24870,1232868,1232866,Тесты на фронте,,Ready for testing,,Сеул 23.11-04.12,Сеул 07.12-18.12,Сеул 21.12-31.12,Сеул 11.01-22.01,,U_M14R9,27.11.2020 10:55
ABM-24869,1232867,1232866,Медиапланирование,,To Do,,Сеул 23.11-04.12,Сеул 07.12-18.12,Сеул 21.12-31.12,Сеул 11.01-22.01,,U_M14R9,27.11.2020 10:55
ABM-24868,1232866,,[iOS] Я как клиент хочу просмотреть документ и список на подписание,,In Progress,,Сеул 23.11-04.12,Сеул 07.12-18.12,Сеул 21.12-31.12,Сеул 11.01-22.01,,U_M14R9,27.11.2020 10:55
ABM-24753,1227186,,Обновить тексты статусной модели,10.0,To Do,,Сеул 23.11-04.12,Сеул 07.12-18.12,Сеул 21.12-31.12,Сеул 11.01-22.01,,U_M17ZN,24.11.2020 14:24
ABM-24455,1208417,1207973,Запилить,,Done,,Сеул 09.11-20.11,Сеул 23.11-04.12,Сеул 07.12-18.12,Сеул 21.12-31.12,Сеул 11.01-22.01,U_023AN,11.11.2020 16:31
ABM-24435,1207978,1207973,Дополнить тестовую модель,,In Progress,,Сеул 09.11-20.11,Сеул 23.11-04.12,Сеул 07.12-18.12,Сеул 21.12-31.12,Сеул 11.01-22.01,U_M17ZN,11.11.2020 12:18
ABM-24434,1207977,1207973,Design-review,,Done,,Сеул 09.11-20.11,Сеул 23.11-04.12,Сеул 07.12-18.12,Сеул 21.12-31.12,Сеул 11.01-22.01,U_023AN,11.11.2020 12:18
ABM-24433,1207976,1207973,События GA,,In Progress,,Сеул 09.11-20.11,Сеул 23.11-04.12,Сеул 07.12-18.12,Сеул 21.12-31.12,Сеул 11.01-22.01,U_023AN,11.11.2020 12:18
ABM-24432,1207975,1207973,Тесты на фронте,,Done,,Сеул 09.11-20.11,Сеул 23.11-04.12,Сеул 07.12-18.12,Сеул 21.12-31.12,Сеул 11.01-22.01,U_023AN,11.11.2020 12:18
ABM-24430,1207973,,"[Android] Я как клиент хочу узнать, что у меня есть документ на подписание",,In Progress,,Сеул 09.11-20.11,Сеул 23.11-04.12,Сеул 07.12-18.12,Сеул 21.12-31.12,Сеул 11.01-22.01,U_023AN,11.11.2020 12:18
ABM-24395,1206882,1206877,Написать ОТАР на эквайринг,11.0,To Do,,Сеул 09.11-20.11,Сеул 23.11-04.12,Сеул 07.12-18.12,Сеул 21.12-31.12,Сеул 11.01-22.01,U_M13MN,10.11.2020 17:30
ABM-24394,1206880,1206877,Согласовать vision,,In Progress,,Сеул 09.11-20.11,Сеул 23.11-04.12,Сеул 07.12-18.12,Сеул 21.12-31.12,Сеул 11.01-22.01,U_M13MN,10.11.2020 17:29
ABM-24393,1206879,1206877,Документация на api,,In Progress,,Сеул 09.11-20.11,Сеул 23.11-04.12,Сеул 07.12-18.12,Сеул 21.12-31.12,Сеул 11.01-22.01,U_M13MN,10.11.2020 17:29
ABM-24392,1206878,1206877,Документация на фронт,,To Do,,Сеул 09.11-20.11,Сеул 23.11-04.12,Сеул 07.12-18.12,Сеул 21.12-31.12,Сеул 11.01-22.01,U_M13MN,10.11.2020 17:28
ABM-24391,1206877,,Документация. Онлайн-подписание документов эквайринга,,In Progress,,Сеул 09.11-20.11,Сеул 23.11-04.12,Сеул 07.12-18.12,Сеул 21.12-31.12,Сеул 11.01-22.01,U_M13MN,10.11.2020 17:27
ABM-24062,1190360,1190355,Дополнить тестовую модель,,In Progress,,Сеул 09.11-20.11,Сеул 23.11-04.12,Сеул 07.12-18.12,Сеул 21.12-31.12,Сеул 11.01-22.01,U_M17ZN,29.10.2020 10:22
ABM-24061,1190359,1190355,Design-review,,To Do,,Сеул 09.11-20.11,Сеул 23.11-04.12,Сеул 07.12-18.12,Сеул 21.12-31.12,Сеул 11.01-22.01,,29.10.2020 10:22
ABM-24060,1190358,1190355,События GA,,Done,,Сеул 09.11-20.11,Сеул 23.11-04.12,Сеул 07.12-18.12,Сеул 21.12-31.12,Сеул 11.01-22.01,U_M14R9,29.10.2020 10:22
ABM-24059,1190357,1190355,Тесты на фронте,,Closed,,Сеул 09.11-20.11,Сеул 23.11-04.12,Сеул 07.12-18.12,Сеул 21.12-31.12,Сеул 11.01-22.01,U_M14R9,29.10.2020 10:22
ABM-24057,1190355,,"[iOS] Я как клиент хочу узнать, что у меня есть документ на подписание",,In Progress,,Сеул 09.11-20.11,Сеул 23.11-04.12,Сеул 07.12-18.12,Сеул 21.12-31.12,Сеул 11.01-22.01,U_M14R9,29.10.2020 10:22
ABM-24056,1190354,,Онлайн-подписание документов на эквайринг,,100. Backlog,,Сеул 09.11-20.11,Сеул 23.11-04.12,Сеул 07.12-18.12,Сеул 21.12-31.12,Сеул 11.01-22.01,,29.10.2020 10:16
